^C:\USERS\ADAM\DESKTOP\PROJECTS\CSE167\CUBE\CAMERA.CPP|C:\USERS\ADAM\DESKTOP\PROJECTS\CSE167\CUBE\CUBE.CPP|C:\USERS\ADAM\DESKTOP\PROJECTS\CSE167\CUBE\HOUSE.CPP|C:\USERS\ADAM\DESKTOP\PROJECTS\CSE167\CUBE\MAIN.CPP|C:\USERS\ADAM\DESKTOP\PROJECTS\CSE167\CUBE\MATRIX4.CPP|C:\USERS\ADAM\DESKTOP\PROJECTS\CSE167\CUBE\VECTOR3.CPP|C:\USERS\ADAM\DESKTOP\PROJECTS\CSE167\CUBE\VECTOR4.CPP|C:\USERS\ADAM\DESKTOP\PROJECTS\CSE167\CUBE\WINDOW.CPP|C:\USERS\ADAM\DESKTOP\PROJECTS\CSE167\CUBE\XYZPARSER.CPP
C:\USERS\ADAM\DESKTOP\PROJECTS\CSE167\CUBE\DEBUG\VC120.PDB
C:\USERS\ADAM\DESKTOP\PROJECTS\CSE167\CUBE\DEBUG\VC120.IDB
C:\USERS\ADAM\DESKTOP\PROJECTS\CSE167\CUBE\DEBUG\CAMERA.OBJ
C:\USERS\ADAM\DESKTOP\PROJECTS\CSE167\CUBE\DEBUG\CUBE.OBJ
C:\USERS\ADAM\DESKTOP\PROJECTS\CSE167\CUBE\DEBUG\HOUSE.OBJ
C:\USERS\ADAM\DESKTOP\PROJECTS\CSE167\CUBE\DEBUG\MAIN.OBJ
C:\USERS\ADAM\DESKTOP\PROJECTS\CSE167\CUBE\DEBUG\MATRIX4.OBJ
C:\USERS\ADAM\DESKTOP\PROJECTS\CSE167\CUBE\DEBUG\VECTOR3.OBJ
C:\USERS\ADAM\DESKTOP\PROJECTS\CSE167\CUBE\DEBUG\VECTOR4.OBJ
C:\USERS\ADAM\DESKTOP\PROJECTS\CSE167\CUBE\DEBUG\WINDOW.OBJ
C:\USERS\ADAM\DESKTOP\PROJECTS\CSE167\CUBE\DEBUG\XYZPARSER.OBJ
^C:\USERS\ADAM\DESKTOP\PROJECTS\CSE167\CUBE\CAMERA.CPP
C:\USERS\ADAM\DESKTOP\PROJECTS\CSE167\CUBE\DEBUG\VC120.PDB
^C:\USERS\ADAM\DESKTOP\PROJECTS\CSE167\CUBE\CUBE.CPP
C:\USERS\ADAM\DESKTOP\PROJECTS\CSE167\CUBE\DEBUG\VC120.PDB
^C:\USERS\ADAM\DESKTOP\PROJECTS\CSE167\CUBE\HOUSE.CPP
C:\USERS\ADAM\DESKTOP\PROJECTS\CSE167\CUBE\DEBUG\VC120.PDB
^C:\USERS\ADAM\DESKTOP\PROJECTS\CSE167\CUBE\MAIN.CPP
C:\USERS\ADAM\DESKTOP\PROJECTS\CSE167\CUBE\DEBUG\VC120.PDB
C:\USERS\ADAM\DESKTOP\PROJECTS\CSE167\CUBE\DEBUG\VC120.IDB
C:\USERS\ADAM\DESKTOP\PROJECTS\CSE167\CUBE\DEBUG\MAIN.OBJ
^C:\USERS\ADAM\DESKTOP\PROJECTS\CSE167\CUBE\MATRIX4.CPP
C:\USERS\ADAM\DESKTOP\PROJECTS\CSE167\CUBE\DEBUG\VC120.PDB
^C:\USERS\ADAM\DESKTOP\PROJECTS\CSE167\CUBE\VECTOR3.CPP
C:\USERS\ADAM\DESKTOP\PROJECTS\CSE167\CUBE\DEBUG\VC120.PDB
^C:\USERS\ADAM\DESKTOP\PROJECTS\CSE167\CUBE\VECTOR4.CPP
C:\USERS\ADAM\DESKTOP\PROJECTS\CSE167\CUBE\DEBUG\VC120.PDB
^C:\USERS\ADAM\DESKTOP\PROJECTS\CSE167\CUBE\WINDOW.CPP
C:\USERS\ADAM\DESKTOP\PROJECTS\CSE167\CUBE\DEBUG\VC120.PDB
C:\USERS\ADAM\DESKTOP\PROJECTS\CSE167\CUBE\DEBUG\VC120.IDB
C:\USERS\ADAM\DESKTOP\PROJECTS\CSE167\CUBE\DEBUG\WINDOW.OBJ
^C:\USERS\ADAM\DESKTOP\PROJECTS\CSE167\CUBE\XYZPARSER.CPP
C:\USERS\ADAM\DESKTOP\PROJECTS\CSE167\CUBE\DEBUG\VC120.PDB
C:\USERS\ADAM\DESKTOP\PROJECTS\CSE167\CUBE\DEBUG\VC120.IDB
C:\USERS\ADAM\DESKTOP\PROJECTS\CSE167\CUBE\DEBUG\XYZPARSER.OBJ
^C:\USERS\ADAM\DESKTOP\PROJECTS\CSE167\CUBE\MAIN.CPP|C:\USERS\ADAM\DESKTOP\PROJECTS\CSE167\CUBE\WINDOW.CPP|C:\USERS\ADAM\DESKTOP\PROJECTS\CSE167\CUBE\XYZPARSER.CPP
C:\USERS\ADAM\DESKTOP\PROJECTS\CSE167\CUBE\DEBUG\VC120.PDB
C:\USERS\ADAM\DESKTOP\PROJECTS\CSE167\CUBE\DEBUG\VC120.IDB
C:\USERS\ADAM\DESKTOP\PROJECTS\CSE167\CUBE\DEBUG\XYZPARSER.OBJ
C:\USERS\ADAM\DESKTOP\PROJECTS\CSE167\CUBE\DEBUG\MAIN.OBJ
C:\USERS\ADAM\DESKTOP\PROJECTS\CSE167\CUBE\DEBUG\WINDOW.OBJ
^C:\USERS\ADAM\DESKTOP\PROJECTS\CSE167\CUBE\WINDOW.CPP|C:\USERS\ADAM\DESKTOP\PROJECTS\CSE167\CUBE\XYZPARSER.CPP
C:\USERS\ADAM\DESKTOP\PROJECTS\CSE167\CUBE\DEBUG\VC120.PDB
C:\USERS\ADAM\DESKTOP\PROJECTS\CSE167\CUBE\DEBUG\VC120.IDB
C:\USERS\ADAM\DESKTOP\PROJECTS\CSE167\CUBE\DEBUG\XYZPARSER.OBJ
C:\USERS\ADAM\DESKTOP\PROJECTS\CSE167\CUBE\DEBUG\WINDOW.OBJ
^C:\USERS\ADAM\DESKTOP\PROJECTS\CSE167\CUBE\CUBE.CPP|C:\USERS\ADAM\DESKTOP\PROJECTS\CSE167\CUBE\MAIN.CPP|C:\USERS\ADAM\DESKTOP\PROJECTS\CSE167\CUBE\MATRIX4.CPP|C:\USERS\ADAM\DESKTOP\PROJECTS\CSE167\CUBE\WINDOW.CPP|C:\USERS\ADAM\DESKTOP\PROJECTS\CSE167\CUBE\XYZPARSER.CPP
C:\USERS\ADAM\DESKTOP\PROJECTS\CSE167\CUBE\DEBUG\VC120.PDB
C:\USERS\ADAM\DESKTOP\PROJECTS\CSE167\CUBE\DEBUG\VC120.IDB
C:\USERS\ADAM\DESKTOP\PROJECTS\CSE167\CUBE\DEBUG\MATRIX4.OBJ
C:\USERS\ADAM\DESKTOP\PROJECTS\CSE167\CUBE\DEBUG\MAIN.OBJ
C:\USERS\ADAM\DESKTOP\PROJECTS\CSE167\CUBE\DEBUG\WINDOW.OBJ
C:\USERS\ADAM\DESKTOP\PROJECTS\CSE167\CUBE\DEBUG\CUBE.OBJ
